EESchema Schematic File Version 2
LIBS:power
LIBS:device
LIBS:transistors
LIBS:conn
LIBS:linear
LIBS:regul
LIBS:74xx
LIBS:cmos4000
LIBS:adc-dac
LIBS:memory
LIBS:xilinx
LIBS:special
LIBS:microcontrollers
LIBS:dsp
LIBS:microchip
LIBS:analog_switches
LIBS:motorola
LIBS:texas
LIBS:intel
LIBS:audio
LIBS:interface
LIBS:digital-audio
LIBS:philips
LIBS:display
LIBS:cypress
LIBS:siliconi
LIBS:opto
LIBS:atmel
LIBS:contrib
LIBS:valves
LIBS:cpu-amp-meter-cache
EELAYER 27 0
EELAYER END
$Descr A4 11693 8268
encoding utf-8
Sheet 1 1
Title ""
Date "23 may 2015"
Rev ""
Comp ""
Comment1 ""
Comment2 ""
Comment3 ""
Comment4 ""
$EndDescr
$Comp
L ATTINY2313-P IC1
U 1 1 554927FF
P 5850 3950
F 0 "IC1" H 4900 4950 40  0000 C CNN
F 1 "ATTINY2313-P" H 6650 3050 40  0000 C CNN
F 2 "DIP-20__300" H 5850 3950 35  0001 C CIN
F 3 "~" H 5850 3950 60  0000 C CNN
	1    5850 3950
	1    0    0    -1  
$EndComp
$Comp
L CRYSTAL X1
U 1 1 5549283A
P 4050 3750
F 0 "X1" H 4050 3900 60  0000 C CNN
F 1 "12MHz" H 4050 3600 60  0000 C CNN
F 2 "HC-33UV" H 4050 3750 60  0001 C CNN
F 3 "~" H 4050 3750 60  0000 C CNN
	1    4050 3750
	-1   0    0    -1  
$EndComp
$Comp
L C C2
U 1 1 55492885
P 4350 4050
F 0 "C2" H 4350 4150 40  0000 L CNN
F 1 "27pF" H 4356 3965 40  0000 L CNN
F 2 "C1" H 4388 3900 30  0001 C CNN
F 3 "~" H 4350 4050 60  0000 C CNN
	1    4350 4050
	1    0    0    1   
$EndComp
$Comp
L C C1
U 1 1 5549289E
P 3750 4050
F 0 "C1" H 3750 4150 40  0000 L CNN
F 1 "27pF" H 3756 3965 40  0000 L CNN
F 2 "C1" H 3788 3900 30  0001 C CNN
F 3 "~" H 3750 4050 60  0000 C CNN
	1    3750 4050
	1    0    0    1   
$EndComp
$Comp
L R R1
U 1 1 5549295F
P 4150 3150
F 0 "R1" V 4230 3150 40  0000 C CNN
F 1 "10K" V 4157 3151 40  0000 C CNN
F 2 "R1" V 4080 3150 30  0001 C CNN
F 3 "~" H 4150 3150 30  0000 C CNN
	1    4150 3150
	0    -1   -1   0   
$EndComp
$Comp
L VCC #PWR01
U 1 1 5549296E
P 3800 3150
F 0 "#PWR01" H 3800 3250 30  0001 C CNN
F 1 "VCC" H 3800 3250 30  0000 C CNN
F 2 "" H 3800 3150 60  0000 C CNN
F 3 "" H 3800 3150 60  0000 C CNN
	1    3800 3150
	1    0    0    -1  
$EndComp
$Comp
L GND #PWR02
U 1 1 55492987
P 3750 4400
F 0 "#PWR02" H 3750 4400 30  0001 C CNN
F 1 "GND" H 3750 4330 30  0001 C CNN
F 2 "" H 3750 4400 60  0000 C CNN
F 3 "" H 3750 4400 60  0000 C CNN
	1    3750 4400
	1    0    0    -1  
$EndComp
$Comp
L GND #PWR03
U 1 1 5549299E
P 4350 4400
F 0 "#PWR03" H 4350 4400 30  0001 C CNN
F 1 "GND" H 4350 4330 30  0001 C CNN
F 2 "" H 4350 4400 60  0000 C CNN
F 3 "" H 4350 4400 60  0000 C CNN
	1    4350 4400
	1    0    0    -1  
$EndComp
$Comp
L USB J1
U 1 1 554929A6
P 8400 3200
F 0 "J1" H 8350 3600 60  0000 C CNN
F 1 "USB" V 8150 3350 60  0000 C CNN
F 2 "USB_B" H 8400 3200 60  0001 C CNN
F 3 "~" H 8400 3200 60  0000 C CNN
	1    8400 3200
	-1   0    0    -1  
$EndComp
$Comp
L GND #PWR04
U 1 1 554929BF
P 9550 3550
F 0 "#PWR04" H 9550 3550 30  0001 C CNN
F 1 "GND" H 9550 3480 30  0001 C CNN
F 2 "" H 9550 3550 60  0000 C CNN
F 3 "" H 9550 3550 60  0000 C CNN
	1    9550 3550
	0    -1   -1   0   
$EndComp
$Comp
L VCC #PWR05
U 1 1 55492B5C
P 5850 2650
F 0 "#PWR05" H 5850 2750 30  0001 C CNN
F 1 "VCC" H 5850 2750 30  0000 C CNN
F 2 "" H 5850 2650 60  0000 C CNN
F 3 "" H 5850 2650 60  0000 C CNN
	1    5850 2650
	1    0    0    -1  
$EndComp
$Comp
L VCC #PWR06
U 1 1 55492C1C
P 9550 3400
F 0 "#PWR06" H 9550 3500 30  0001 C CNN
F 1 "VCC" H 9550 3500 30  0000 C CNN
F 2 "" H 9550 3400 60  0000 C CNN
F 3 "" H 9550 3400 60  0000 C CNN
	1    9550 3400
	1    0    0    -1  
$EndComp
$Comp
L LED D1
U 1 1 55492D50
P 7450 5400
F 0 "D1" H 7450 5500 50  0000 C CNN
F 1 "LED" H 7450 5300 50  0000 C CNN
F 2 "LED-3MM" H 7450 5400 60  0001 C CNN
F 3 "~" H 7450 5400 60  0000 C CNN
	1    7450 5400
	0    1    1    0   
$EndComp
$Comp
L R R6
U 1 1 55492D5F
P 7450 4800
F 0 "R6" V 7530 4800 40  0000 C CNN
F 1 "330" V 7457 4801 40  0000 C CNN
F 2 "R1" V 7380 4800 30  0001 C CNN
F 3 "~" H 7450 4800 30  0000 C CNN
	1    7450 4800
	1    0    0    -1  
$EndComp
$Comp
L GND #PWR07
U 1 1 55492DB1
P 7450 5800
F 0 "#PWR07" H 7450 5800 30  0001 C CNN
F 1 "GND" H 7450 5730 30  0001 C CNN
F 2 "" H 7450 5800 60  0000 C CNN
F 3 "" H 7450 5800 60  0000 C CNN
	1    7450 5800
	1    0    0    -1  
$EndComp
$Comp
L R R4
U 1 1 55492DF7
P 7450 4250
F 0 "R4" V 7530 4250 40  0000 C CNN
F 1 "68" V 7457 4251 40  0000 C CNN
F 2 "R1" V 7380 4250 30  0001 C CNN
F 3 "~" H 7450 4250 30  0000 C CNN
	1    7450 4250
	0    -1   -1   0   
$EndComp
$Comp
L R R5
U 1 1 55492E09
P 7450 4450
F 0 "R5" V 7530 4450 40  0000 C CNN
F 1 "68" V 7457 4451 40  0000 C CNN
F 2 "R1" V 7380 4450 30  0001 C CNN
F 3 "~" H 7450 4450 30  0000 C CNN
	1    7450 4450
	0    -1   -1   0   
$EndComp
$Comp
L ZENER D2
U 1 1 55492EE4
P 7950 4750
F 0 "D2" H 7950 4850 50  0000 C CNN
F 1 "3V6" H 7950 4650 40  0000 C CNN
F 2 "D3" H 7950 4750 60  0001 C CNN
F 3 "~" H 7950 4750 60  0000 C CNN
	1    7950 4750
	0    -1   -1   0   
$EndComp
$Comp
L GND #PWR08
U 1 1 55492EF3
P 7950 5000
F 0 "#PWR08" H 7950 5000 30  0001 C CNN
F 1 "GND" H 7950 4930 30  0001 C CNN
F 2 "" H 7950 5000 60  0000 C CNN
F 3 "" H 7950 5000 60  0000 C CNN
	1    7950 5000
	1    0    0    -1  
$EndComp
$Comp
L GND #PWR09
U 1 1 55492F0C
P 8300 5000
F 0 "#PWR09" H 8300 5000 30  0001 C CNN
F 1 "GND" H 8300 4930 30  0001 C CNN
F 2 "" H 8300 5000 60  0000 C CNN
F 3 "" H 8300 5000 60  0000 C CNN
	1    8300 5000
	1    0    0    -1  
$EndComp
$Comp
L ZENER D3
U 1 1 55492F1E
P 8300 4750
F 0 "D3" H 8300 4850 50  0000 C CNN
F 1 "3V6" H 8300 4650 40  0000 C CNN
F 2 "D3" H 8300 4750 60  0001 C CNN
F 3 "~" H 8300 4750 60  0000 C CNN
	1    8300 4750
	0    -1   -1   0   
$EndComp
$Comp
L R R3
U 1 1 5549303E
P 7400 3550
F 0 "R3" V 7480 3550 40  0000 C CNN
F 1 "1k5" V 7407 3551 40  0000 C CNN
F 2 "R1" V 7330 3550 30  0001 C CNN
F 3 "~" H 7400 3550 30  0000 C CNN
	1    7400 3550
	0    -1   -1   0   
$EndComp
$Comp
L R R2
U 1 1 55493286
P 7300 3100
F 0 "R2" V 7380 3100 40  0000 C CNN
F 1 "500" V 7307 3101 40  0000 C CNN
F 2 "R1" V 7230 3100 30  0001 C CNN
F 3 "~" H 7300 3100 30  0000 C CNN
	1    7300 3100
	-1   0    0    1   
$EndComp
$Comp
L GND #PWR010
U 1 1 5549333E
P 7800 2850
F 0 "#PWR010" H 7800 2850 30  0001 C CNN
F 1 "GND" H 7800 2780 30  0001 C CNN
F 2 "" H 7800 2850 60  0000 C CNN
F 3 "" H 7800 2850 60  0000 C CNN
	1    7800 2850
	0    -1   -1   0   
$EndComp
$Comp
L C C3
U 1 1 554D2F75
P 9050 3650
F 0 "C3" H 9050 3750 40  0000 L CNN
F 1 "100n" H 9056 3565 40  0000 L CNN
F 2 "~" H 9088 3500 30  0000 C CNN
F 3 "~" H 9050 3650 60  0000 C CNN
	1    9050 3650
	1    0    0    -1  
$EndComp
$Comp
L CP1 C4
U 1 1 554D3053
P 9300 3650
F 0 "C4" H 9350 3750 50  0000 L CNN
F 1 "10u" H 9350 3550 50  0000 L CNN
F 2 "~" H 9300 3650 60  0000 C CNN
F 3 "~" H 9300 3650 60  0000 C CNN
	1    9300 3650
	1    0    0    -1  
$EndComp
Wire Wire Line
	3800 3150 3900 3150
Wire Wire Line
	4400 3150 4700 3150
Wire Wire Line
	5850 2650 5850 2850
Wire Wire Line
	7450 5050 7450 5200
Wire Wire Line
	7450 5600 7450 5800
Wire Wire Line
	7000 4550 7450 4550
Wire Wire Line
	8300 4950 8300 5000
Wire Wire Line
	8300 4250 8300 4550
Wire Wire Line
	8050 3400 7950 3400
Wire Wire Line
	7950 3400 7950 4550
Wire Wire Line
	7650 3550 8050 3550
Wire Wire Line
	7950 4950 7950 5000
Wire Wire Line
	7150 3550 7100 3550
Wire Wire Line
	4350 4250 4350 4400
Wire Wire Line
	3750 4250 3750 4400
Wire Wire Line
	3750 3450 3750 3850
Wire Wire Line
	3750 3450 4700 3450
Connection ~ 3750 3750
Wire Wire Line
	4700 3650 4350 3650
Wire Wire Line
	4350 3650 4350 3850
Connection ~ 4350 3750
Wire Wire Line
	8800 3400 9550 3400
Wire Wire Line
	8800 3550 8900 3550
Wire Wire Line
	8900 3550 8900 3900
Wire Wire Line
	8900 3900 9500 3900
Wire Wire Line
	9500 3900 9500 3550
Wire Wire Line
	9500 3550 9550 3550
Wire Wire Line
	9050 3850 9050 3900
Connection ~ 9050 3900
Wire Wire Line
	9050 3450 9050 3400
Connection ~ 9050 3400
Wire Wire Line
	9300 3400 9300 3450
Connection ~ 9300 3400
Wire Wire Line
	9300 3850 9300 3900
Connection ~ 9300 3900
Wire Wire Line
	7300 3350 7000 3350
Wire Wire Line
	7750 2850 7800 2850
Wire Wire Line
	7350 2850 7300 2850
$Comp
L TEST W1
U 1 1 554D34D6
P 7550 2850
F 0 "W1" H 7550 2910 40  0000 C CNN
F 1 "AMP-Meter" H 7550 2780 40  0000 C CNN
F 2 "~" H 7550 2850 60  0000 C CNN
F 3 "~" H 7550 2850 60  0000 C CNN
	1    7550 2850
	1    0    0    -1  
$EndComp
$Comp
L GND #PWR011
U 1 1 554D3B2C
P 5850 5000
F 0 "#PWR011" H 5850 5000 30  0001 C CNN
F 1 "GND" H 5850 4930 30  0001 C CNN
F 2 "" H 5850 5000 60  0000 C CNN
F 3 "" H 5850 5000 60  0000 C CNN
	1    5850 5000
	1    0    0    -1  
$EndComp
Wire Wire Line
	5850 4950 5850 5000
Wire Wire Line
	7000 4350 7100 4350
Wire Wire Line
	7100 4350 7100 3550
Connection ~ 8300 4250
Wire Wire Line
	7700 4450 7950 4450
Connection ~ 7950 4450
Wire Wire Line
	8300 4250 7700 4250
Wire Wire Line
	7800 4250 7800 3550
Connection ~ 7800 3550
Connection ~ 7800 4250
Wire Wire Line
	7200 4250 7000 4250
Wire Wire Line
	7000 4450 7200 4450
$EndSCHEMATC
